{
    "default": 0,
    "experiments": [
        {
            "title": "Planets Simulation",
            "file": "planets.html"
        },
        {
            "title": "Heartbeat",
            "file": "heartbeat.html"
        }
    ]
}